[
  {
    "url": "https://teddit.net"
  },
  {
    "url": "https://teddit.ggc-project.de"
  },
  {
    "url": "https://teddit.zaggy.nl"
  },
  {
    "url": "https://teddit.namazso.eu"
  },
  {
    "url": "https://teddit.tinfoil-hat.net"
  },
  {
    "url": "https://teddit.domain.glass"
  },
  {
    "url": "https://snoo.ioens.is",
    "onion": "http://snoo.ioensistjs7wd746zluwixvojbbkxhr37lepdvwtdfeav673o64iflqd.onion"
  },
  {
    "url": "https://teddit.httpjames.space"
  },
  {
    "url": "",
    "onion": "http://ibarajztopxnuhabfu7fg6gbudynxofbnmvis3ltj6lfx47b6fhrd5qd.onion",
    "i2p": "http://xugoqcf2pftm76vbznx4xuhrzyb5b6zwpizpnw2hysexjdn5l2tq.b32.i2p",
    "notes": "Operated by mdleom.com"
  },
  {
    "url": "https://incogsnoo.com",
    "onion": "http://tedditfyn6idalzso5wam5qd3kdtxoljjhbrbbx34q2xkcisvshuytad.onion",
    "i2p": "http://teddit.i2p"
  },
  {
    "url": "https://teddit.pussthecat.org",
    "notes": "Operated by PussTheCat.org"
  },
  {
    "url": "https://reddit.lol",
    "onion": "http://dawtyi5e2cfyfmoht4izmczi42aa2zwh6wi34zwvc6rzf2acpxhrcrad.onion",
    "i2p": "http://vzeiwzi7ogwl3ijrfek4fbtwhvamxcpyqoc3s4vcgnhlp54s5clq.b32.i2p",
    "notes": "Operated by https://liberta.casa"
  },
  {
    "url": "https://teddit.sethforprivacy.com",
    "onion": "http://qtpvyiaqhmwccxwzsqubd23xhmmrt75tdyw35kp43w4hvamsgl3x27ad.onion",
    "notes": "For more similar hosted tools, see blog.sethforprivacy.com"
  },
  {
    "url": "https://teddit.totaldarkness.net"
  },
  {
    "url": "https://teddit.adminforge.de",
    "notes": "Operated by https://adminforge.de"
  },
  {
    "url": "https://teddit.bus-hit.me",
    "notes": "Operated by https://bus-hit.me"
  },
  {
    "url": "https://teddit.froth.zone"
  },
  {
    "url": "https://rdt.trom.tf/",
    "notes": "Part of the https://trom.tf/ project"
  },
  {
    "url": "https://teddit.encrypted-data.xyz"
  },
  {
    "url": "https://i.opnxng.com"
  },
  {
    "url": "https://teddit.tokhmi.xyz"
  },
  {
    "url": "https://teddit.garudalinux.org",
    "notes": "Managed by https://garudalinux.org"
  },
  {
    "url": "https://tedd.it"
  },
  {
    "url": "https://wiki.privacytools.io",
    "onion": "http://jnuonmf2n36sfdmyksqqqyab3w63cq4kx24olyjleh5z6zzfvyt7uqqd.onion",
    "notes": "Part of: https://www.privacytools.io"
  },
  {
    "url":"https://td.vern.cc",
    "onion":"http://td.vernccvbvyi5qhfzyqengccj7lkove6bjot2xhh5kajhwvidqafczrad.onion",
    "i2p":"http://verncco2oaxjikammz4pi7umzp673cme6zuemx7yeeewspwrw3va.b32.i2p",
    "notes":"Operated by https://vern.cc"
  },
  {
    "url":"https://teddit.rawbit.ninja",
    "onion":"http://yqu4yj5lju7bmlwpzpmltb5gsu6cw7nnbcxxx4iqemwa56nxjiggf4qd.onion",
    "notes":"Operated by https://rawbit.ninja"
  },
  {
    "url":"https://teddit.artemislena.eu",
    "onion":"http://teddit.lpoaj7z2zkajuhgnlltpeqh3zyq7wk2iyeggqaduhgxhyajtdt2j7wad.onion",
    "notes":"Operated by https://artemislena.eu"
  },
  {
    "url":"https://teddit.manasiwibi.com/",
    "onion":"http://24fympskbrdgbf4afuvhqwwl2tv3y2vwxg5t2ktozd4j5b3fob5ntzyd.onion/",
    "notes":"Operated by https://manasiwibi.com/"
  }
]
